<svg xmlns="http://www.w3.org/2000/svg" width="372.6" height="868.2">
  <path fill="#2d2a28" fill-rule="evenodd" d="M21 698.5c40.6-45.6 88.3-26 133.6-1.7-44.7 24.8-94 43-133.6 1.7zm4.6-31.8c-12.3-59.8 32-86.4 78.4-108.2-6.8 50.6-21.5 101-78.4 108.2zm76-16.2c36.5-48.8 85.7-33.3 133-13-42.6 28.5-90 51-133 13zM137 612c-41.2-45-17-90.5 12-133 20 47 33.3 97.8-12 133zm37-10.2c21.7-57 73.3-55.7 124.2-49-33 39-72.6 73.6-124.3 49zm36.8-55.2c-53.4-29.4-45-80.4-31.2-130 34 38.2 62.8 82.2 31.2 130zm22-10.6c10.5-60 61.4-68.5 112.7-71.7-25 44.6-57.2 86-112.7 71.8zm27-62.2c-58-19-59-70.6-55-121.8 40.5 31 77 69 54.8 121.8zm15.6-11.6c-1-61 47.4-79 97.2-91.8-16 48.5-40 95.4-97.2 91.8zm-5.8-88.6c-59.8-12.3-66.8-63.4-68.4-114.8 43.8 26.3 84.4 59.8 68.4 114.8zm13 14.4c-8.3-60.5 37.6-84 85.5-102.7-10 50-28 99.4-85 102.6zm-14.2-116.5c-61 1.3-79.2-47-92.3-96.7 49 16 96 39.5 92.8 96.7zm22 40.7c-30.7-52.8 2.8-92 40-127.6 9.6 50.2 11.7 102.8-40 127.6zm-72-147C160 183 129.4 141 103.6 96.7c51 2.4 102.7 12.7 114.6 68.7zM272 220c-47-38.7-29.5-87.2-7-133.4 26.5 43.6 46.8 92 7 133.4zM171.8 87.3c-60 11-85.7-33.7-106.6-80.6 50.5 8 100.7 23.6 106.6 80.6zm50.2 42C168 101 175.5 49.7 188 0c35 37.4 64.6 80.8 34 129.2zm-201 599c112.5 4.8 114 92.7 207 89.5 36.6 0 1 71-42.2 44-43-27-80.7-93.7-143.3-93.7-22.6-2-24.2-23-21.5-40z"/>
</svg>
