<svg xmlns="http://www.w3.org/2000/svg" width="183" height="556">
	<path fill="#2d2a28" fill-rule="evenodd" d="M183 0l-7 1c-6 2-12 4-15 7l-3 2v21l-3 97v6l2-2c5-3 16-5 26-5V0zm0 144c-13 0-20 2-26 6-4 3-4 2-4 24v20l-2 3-2 3-15 2c-2 0-2 0-3-2-2-5-4-5-19-1-18 5-20 6-32 13l-6 4-4-4c-3-4-5-5-9-5-3 0-6 1-13 7-4 4-7 7-8 10 0 3 1 8 3 10l1 2-3 4c-4 4-10 14-12 18l-4 9v4c13-5 36-10 59-13 35-4 69-6 99-6V144zM63 212c2 1 6 6 5 7l-4 2-10 7-6 5-2-3-1-3c0-2 3-6 8-10l10-5zm86 56l-1 1-1 1 1 2 1 1 2-1 1-2-1-1-2-1zm28 0h-1c-1 1-2 2-1 3l2 1 2-3-2-1zm-56 2l-1 1-1 1 1 1 1 1 2-1v-1-1l-2-1zm-25 3l-2 1-1 1 1 1 2 1 1-1 1-1-1-1-1-1zm-24 2l-1 1v2l1 1 2-1v-2l-2-1zm95 3h-20c-32 2-73 6-91 9-13 3-40 11-46 14-3 1-3 2-3 3v11a11072 11072 0 0 1-3 136l14-3a13184 13184 0 0 0 166-1l-1-169h-16zm-116 2h-1c-2 1-2 1 0 2l1 1 2-1v-2h-2zm-14 3l-1 1v2h2v-2l-1-1zm-12 5h-1v2l1 1 1-1c1-1 0-2-1-2zm-10 3v1 2h1v-2l-1-1zm-7 4l-1 1v1h2v-1l-1-1zm110 155c-2 0-3 2-2 3l2 1c2 0 3-3 1-4h-1zm-27 0c-1 0-2 2-1 3s2 2 3 1 0-3-1-4h-1zm55 0c-1 0-2 2-1 3 1 2 2 1 3 0v-2l-2-1zm31 1l-2 2 2 1c2 0 3-1 2-2l-2-1zm-131 0c-2 0-3 2-2 3h3v-2l-1-1zm21 0c-1 0-3 2-1 3h3l-1-2-1-1zm-36 0c-1 0-2 2-1 4h1l2-2-1-2h-1zm-13 1c-1 0-2 1-1 3h2l-1-3zm-8 2H9v2l1 1 2-2-2-1zm-5 2H4v1h2c1-1 0-2-1-1zm81 3a1635 1635 0 0 0-81 4c-1 0-2 7-3 46a549 549 0 0 0 0 47h181v-97H86z"/>
</svg>
