<svg xmlns="http://www.w3.org/2000/svg" width="253" height="557" >
	<path fill="#2d2a28" fill-rule="evenodd" d="M187 0l8 55-14 19 3 1 69 34V43L187 0zM164 94c-23 82-51 111-59 118l-1 1v1c-1 15 2 37 13 52l1 2h2c24-6 38-14 51-27l2-2-1-2c-2-7-6-18-8-40-1-21-1-54 7-101zM126 1l-12 5C41 37 8 102 2 150s6 82 13 96l4 7 2-8c3-8 10-17 21-23l27-11c10-5 22-12 32-21 20-18 40-60 50-98l1-4h-5c-15 0-29-10-35-25-7-14-6-33 7-52zM185 93l-1 4s-10 36-6 81c3 45 20 99 73 133l2 2V122l-68-29z"/><path fill="#2d2a28" fill-rule="evenodd" d="M86 219l-4 2-41 19-2 1v2c-3 30-4 64 8 114l1 4 4-1c60-14 119-62 140-82l2-2-2-2-10-15-2-4-3 2c-20 13-45 24-72 31-8-16-14-42-18-64zM201 286l-3 3a687 687 0 0 1-103 73l-2 1v2c-5 32 5 66 28 102l2 3 3-1c24-10 50-32 72-57 22-26 40-55 47-79v-2l-2-2-6-5a238 238 0 0 1-33-35zM253 350l-3 10a446 446 0 0 1-68 93l-2 2v2c12 41 40 78 71 99l2 1V350z"/>
</svg>
